{
  "key": "model_def_adresse.adresse",
  "value": {
    "uid": "adresse.adresse",
    "collectionName": "components_adresse_adresses",
    "info": {
      "name": "Adresse",
      "icon": "address-card",
      "description": ""
    },
    "options": {
      "timestamps": false
    },
    "attributes": {
      "Name": {
        "type": "string"
      },
      "Strasse": {
        "type": "string"
      },
      "Hausnummer": {
        "type": "string"
      },
      "PLZ": {
        "type": "string"
      },
      "Ort": {
        "type": "string"
      },
      "Email": {
        "type": "string"
      },
      "Telefonnummer": {
        "type": "string"
      }
    }
  },
  "type": "object",
  "environment": null,
  "tag": null
}