{
  "key": "plugin_content_manager_configuration_content_types::application::foerderverein.foerderverein",
  "value": {
    "uid": "application::foerderverein.foerderverein",
    "settings": {
      "bulkable": true,
      "filterable": true,
      "searchable": true,
      "pageSize": 10,
      "mainField": "signupLink",
      "defaultSortBy": "signupLink",
      "defaultSortOrder": "ASC"
    },
    "metadatas": {
      "created_at": {
        "edit": {
          "label": "Created_at",
          "description": "",
          "placeholder": "",
          "visible": false,
          "editable": true
        },
        "list": {
          "label": "Created_at",
          "searchable": true,
          "sortable": true
        }
      },
      "executives": {
        "edit": {
          "label": "Geschäftsführung",
          "description": "",
          "placeholder": "",
          "visible": true,
          "editable": true
        },
        "list": {
          "label": "Executives",
          "searchable": false,
          "sortable": false
        }
      },
      "reasons": {
        "edit": {
          "label": "Gründe für die Fördervereinsmitgliedschaft",
          "description": "",
          "placeholder": "",
          "visible": true,
          "editable": true
        },
        "list": {
          "label": "Reasons",
          "searchable": false,
          "sortable": false
        }
      },
      "metadata": {
        "edit": {
          "label": "Metadaten",
          "description": "",
          "placeholder": "",
          "visible": true,
          "editable": true
        },
        "list": {
          "label": "Metadata",
          "searchable": false,
          "sortable": false
        }
      },
      "executivesDescription": {
        "edit": {
          "label": "Einleitungstext für die Geschäftsführung",
          "description": "",
          "placeholder": "",
          "visible": true,
          "editable": true
        },
        "list": {
          "label": "ExecutivesDescription",
          "searchable": false,
          "sortable": false
        }
      },
      "signupLink": {
        "edit": {
          "label": "Link zum Mitgliedschaftsantrag",
          "description": "",
          "placeholder": "",
          "visible": true,
          "editable": true
        },
        "list": {
          "label": "SignupLink",
          "searchable": true,
          "sortable": true
        }
      },
      "memberCount": {
        "edit": {
          "label": "Aktuelle Mitgliederzahl",
          "description": "",
          "placeholder": "",
          "visible": true,
          "editable": true
        },
        "list": {
          "label": "MemberCount",
          "searchable": true,
          "sortable": true
        }
      },
      "updated_at": {
        "edit": {
          "label": "Updated_at",
          "description": "",
          "placeholder": "",
          "visible": false,
          "editable": true
        },
        "list": {
          "label": "Updated_at",
          "searchable": true,
          "sortable": true
        }
      },
      "introText": {
        "edit": {
          "label": "Einleitungstext",
          "description": "",
          "placeholder": "",
          "visible": true,
          "editable": true
        },
        "list": {
          "label": "IntroText",
          "searchable": false,
          "sortable": false
        }
      },
      "foerdervereinDescription": {
        "edit": {
          "label": "Einleitungstext für den Förderverein",
          "description": "",
          "placeholder": "",
          "visible": true,
          "editable": true
        },
        "list": {
          "label": "FoerdervereinDescription",
          "searchable": false,
          "sortable": false
        }
      },
      "id": {
        "edit": {},
        "list": {
          "label": "Id",
          "searchable": true,
          "sortable": true
        }
      },
      "committeeMembers": {
        "edit": {
          "label": "Fördervereinsvorstand",
          "description": "",
          "placeholder": "",
          "visible": true,
          "editable": true
        },
        "list": {
          "label": "CommitteeMembers",
          "searchable": false,
          "sortable": false
        }
      },
      "committeeDescription": {
        "edit": {
          "label": "Einleitungstext für den Fördervereinsvorstand",
          "description": "",
          "placeholder": "",
          "visible": true,
          "editable": true
        },
        "list": {
          "label": "CommitteeDescription",
          "searchable": false,
          "sortable": false
        }
      }
    },
    "layouts": {
      "edit": [
        [
          {
            "name": "introText",
            "size": 12
          }
        ],
        [
          {
            "name": "executivesDescription",
            "size": 12
          }
        ],
        [
          {
            "name": "executives",
            "size": 12
          }
        ],
        [
          {
            "name": "foerdervereinDescription",
            "size": 12
          }
        ],
        [
          {
            "name": "committeeDescription",
            "size": 12
          }
        ],
        [
          {
            "name": "committeeMembers",
            "size": 12
          }
        ],
        [
          {
            "name": "memberCount",
            "size": 4
          },
          {
            "name": "signupLink",
            "size": 6
          }
        ],
        [
          {
            "name": "reasons",
            "size": 12
          }
        ],
        [
          {
            "name": "metadata",
            "size": 12
          }
        ]
      ],
      "editRelations": [],
      "list": [
        "id",
        "created_at"
      ]
    }
  },
  "type": "object",
  "environment": "",
  "tag": ""
}