{
  "key": "model_def_application::vorstandsmitglieder.vorstandsmitglieder",
  "value": {
    "uid": "application::vorstandsmitglieder.vorstandsmitglieder",
    "collectionName": "vorstandsmitglieders",
    "kind": "collectionType",
    "info": {
      "name": "Vorstandsmitglied",
      "description": ""
    },
    "options": {
      "increments": true,
      "timestamps": [
        "created_at",
        "updated_at"
      ],
      "draftAndPublish": true
    },
    "pluginOptions": {},
    "attributes": {
      "name": {
        "type": "string",
        "required": true
      },
      "position": {
        "type": "string",
        "required": false
      },
      "email": {
        "type": "string"
      },
      "phoneNumber": {
        "type": "string"
      },
      "picture": {
        "model": "file",
        "via": "related",
        "allowedTypes": [
          "images"
        ],
        "plugin": "upload",
        "required": false,
        "pluginOptions": {}
      },
      "published_at": {
        "type": "datetime",
        "configurable": false,
        "writable": true,
        "visible": false
      },
      "created_by": {
        "model": "user",
        "plugin": "admin",
        "configurable": false,
        "writable": false,
        "visible": false,
        "private": true
      },
      "updated_by": {
        "model": "user",
        "plugin": "admin",
        "configurable": false,
        "writable": false,
        "visible": false,
        "private": true
      }
    }
  },
  "type": "object",
  "environment": null,
  "tag": null
}