{
  "key": "model_def_application::houserules.houserules",
  "value": {
    "uid": "application::houserules.houserules",
    "collectionName": "haus_und_badeordnungs",
    "kind": "collectionType",
    "info": {
      "name": "Badeordnung",
      "description": ""
    },
    "options": {
      "increments": true,
      "timestamps": [
        "created_at",
        "updated_at"
      ],
      "draftAndPublish": true
    },
    "pluginOptions": {},
    "attributes": {
      "ueberschrift": {
        "type": "string",
        "required": true
      },
      "text": {
        "type": "richtext",
        "required": true
      },
      "published_at": {
        "type": "datetime",
        "configurable": false,
        "writable": true,
        "visible": false
      },
      "created_by": {
        "model": "user",
        "plugin": "admin",
        "configurable": false,
        "writable": false,
        "visible": false,
        "private": true
      },
      "updated_by": {
        "model": "user",
        "plugin": "admin",
        "configurable": false,
        "writable": false,
        "visible": false,
        "private": true
      }
    }
  },
  "type": "object",
  "environment": null,
  "tag": null
}