{
  "key": "plugin_content_manager_configuration_components::gallery.galleryimage",
  "value": {
    "uid": "gallery.galleryimage",
    "settings": {
      "bulkable": true,
      "filterable": true,
      "searchable": true,
      "pageSize": 10,
      "mainField": "id",
      "defaultSortBy": "id",
      "defaultSortOrder": "ASC"
    },
    "metadatas": {
      "id": {
        "edit": {},
        "list": {
          "label": "Id",
          "searchable": false,
          "sortable": false
        }
      },
      "thumbnail": {
        "edit": {
          "label": "Thumbnail",
          "description": "",
          "placeholder": "",
          "visible": true,
          "editable": true
        },
        "list": {
          "label": "Thumbnail",
          "searchable": false,
          "sortable": false
        }
      },
      "fullImage": {
        "edit": {
          "label": "Komplettes Bild",
          "description": "",
          "placeholder": "",
          "visible": true,
          "editable": true
        },
        "list": {
          "label": "FullImage",
          "searchable": false,
          "sortable": false
        }
      }
    },
    "layouts": {
      "list": [
        "id",
        "thumbnail",
        "fullImage"
      ],
      "edit": [
        [
          {
            "name": "thumbnail",
            "size": 6
          },
          {
            "name": "fullImage",
            "size": 6
          }
        ]
      ],
      "editRelations": []
    },
    "isComponent": true
  },
  "type": "object",
  "environment": "",
  "tag": ""
}