{
  "key": "model_def_application::imprint.imprint",
  "value": {
    "uid": "application::imprint.imprint",
    "collectionName": "impressums",
    "kind": "singleType",
    "info": {
      "name": "Seite: Impressum",
      "description": ""
    },
    "options": {
      "increments": true,
      "timestamps": [
        "created_at",
        "updated_at"
      ],
      "draftAndPublish": true
    },
    "pluginOptions": {},
    "attributes": {
      "metadata": {
        "type": "component",
        "repeatable": false,
        "component": "metadata.metadata"
      },
      "text": {
        "type": "richtext"
      },
      "published_at": {
        "type": "datetime",
        "configurable": false,
        "writable": true,
        "visible": false
      },
      "created_by": {
        "model": "user",
        "plugin": "admin",
        "configurable": false,
        "writable": false,
        "visible": false,
        "private": true
      },
      "updated_by": {
        "model": "user",
        "plugin": "admin",
        "configurable": false,
        "writable": false,
        "visible": false,
        "private": true
      }
    }
  },
  "type": "object",
  "environment": null,
  "tag": null
}