{
  "key": "model_def_application::foerderverein.foerderverein",
  "value": {
    "uid": "application::foerderverein.foerderverein",
    "collectionName": "kontakt",
    "kind": "singleType",
    "info": {
      "name": "Seite: Team",
      "description": ""
    },
    "options": {
      "increments": true,
      "timestamps": [
        "created_at",
        "updated_at"
      ],
      "draftAndPublish": true
    },
    "pluginOptions": {},
    "attributes": {
      "committeeDescription": {
        "type": "richtext"
      },
      "metadata": {
        "type": "component",
        "repeatable": false,
        "component": "metadata.metadata"
      },
      "memberCount": {
        "type": "integer",
        "default": 824,
        "required": true
      },
      "reasons": {
        "type": "component",
        "repeatable": true,
        "component": "home.reason"
      },
      "signupLink": {
        "type": "string",
        "default": "https://form.jotformeu.com/82735486967375",
        "required": true
      },
      "introText": {
        "type": "richtext"
      },
      "executives": {
        "type": "component",
        "repeatable": true,
        "component": "team.executives"
      },
      "committeeMembers": {
        "type": "component",
        "repeatable": true,
        "component": "team.committee-members"
      },
      "executivesDescription": {
        "type": "richtext"
      },
      "foerdervereinDescription": {
        "type": "richtext"
      },
      "published_at": {
        "type": "datetime",
        "configurable": false,
        "writable": true,
        "visible": false
      },
      "created_by": {
        "model": "user",
        "plugin": "admin",
        "configurable": false,
        "writable": false,
        "visible": false,
        "private": true
      },
      "updated_by": {
        "model": "user",
        "plugin": "admin",
        "configurable": false,
        "writable": false,
        "visible": false,
        "private": true
      }
    }
  },
  "type": "object",
  "environment": null,
  "tag": null
}