{
  "key": "plugin_content_manager_configuration_content_types::application::privacy.privacy",
  "value": {
    "uid": "application::privacy.privacy",
    "settings": {
      "bulkable": true,
      "filterable": true,
      "searchable": true,
      "pageSize": 10,
      "mainField": "id",
      "defaultSortBy": "id",
      "defaultSortOrder": "ASC"
    },
    "metadatas": {
      "id": {
        "edit": {},
        "list": {
          "label": "Id",
          "searchable": true,
          "sortable": true
        }
      },
      "text": {
        "edit": {
          "label": "Text",
          "description": "",
          "placeholder": "",
          "visible": true,
          "editable": true
        },
        "list": {
          "label": "Text",
          "searchable": false,
          "sortable": false
        }
      },
      "metadata": {
        "edit": {
          "label": "Metadaten",
          "description": "",
          "placeholder": "",
          "visible": true,
          "editable": true
        },
        "list": {
          "label": "Metadata",
          "searchable": false,
          "sortable": false
        }
      },
      "created_at": {
        "edit": {
          "label": "Created_at",
          "description": "",
          "placeholder": "",
          "visible": false,
          "editable": true
        },
        "list": {
          "label": "Created_at",
          "searchable": true,
          "sortable": true
        }
      },
      "updated_at": {
        "edit": {
          "label": "Updated_at",
          "description": "",
          "placeholder": "",
          "visible": false,
          "editable": true
        },
        "list": {
          "label": "Updated_at",
          "searchable": true,
          "sortable": true
        }
      }
    },
    "layouts": {
      "edit": [
        [
          {
            "name": "text",
            "size": 12
          }
        ],
        [
          {
            "name": "metadata",
            "size": 12
          }
        ]
      ],
      "editRelations": [],
      "list": [
        "id",
        "created_at",
        "updated_at"
      ]
    }
  },
  "type": "object",
  "environment": "",
  "tag": ""
}