{
  "key": "model_def_impressum.vertreten-durch",
  "value": {
    "uid": "impressum.vertreten-durch",
    "collectionName": "components_impressum_vertreten_durches",
    "info": {
      "name": "VertretenDurch",
      "icon": "id-badge"
    },
    "options": {
      "timestamps": false
    },
    "attributes": {}
  },
  "type": "object",
  "environment": null,
  "tag": null
}