{
  "key": "plugin_content_manager_configuration_content_types::application::prices.prices",
  "value": {
    "uid": "application::prices.prices",
    "settings": {
      "bulkable": true,
      "filterable": true,
      "searchable": true,
      "pageSize": 10,
      "mainField": "adultFee",
      "defaultSortBy": "adultFee",
      "defaultSortOrder": "ASC"
    },
    "metadatas": {
      "familyPassText": {
        "edit": {
          "label": "Text neben dem Preis der Familienjahreskarte",
          "description": "",
          "placeholder": "",
          "visible": true,
          "editable": true
        },
        "list": {
          "label": "FamilyPassText",
          "searchable": true,
          "sortable": true
        }
      },
      "childAdditionalFee": {
        "edit": {
          "label": "Zusatzpreis Kinder",
          "description": "",
          "placeholder": "",
          "visible": true,
          "editable": true
        },
        "list": {
          "label": "ChildAdditionalFee",
          "searchable": true,
          "sortable": true
        }
      },
      "teenAdditionalFee": {
        "edit": {
          "label": "Zusatzpreis Jugendliche",
          "description": "",
          "placeholder": "",
          "visible": true,
          "editable": true
        },
        "list": {
          "label": "TeenAdditionalFee",
          "searchable": true,
          "sortable": true
        }
      },
      "adultAdditionalFee": {
        "edit": {
          "label": "Zusatzpreis Erwachsene",
          "description": "",
          "placeholder": "",
          "visible": true,
          "editable": true
        },
        "list": {
          "label": "AdultAdditionalFee",
          "searchable": true,
          "sortable": true
        }
      },
      "subscriptionFee": {
        "edit": {
          "label": "Preis für die Fördervereinsmitgliedschaft",
          "description": "",
          "placeholder": "",
          "visible": true,
          "editable": true
        },
        "list": {
          "label": "SubscriptionFee",
          "searchable": true,
          "sortable": true
        }
      },
      "childFee": {
        "edit": {
          "label": "Preis für Kinder",
          "description": "",
          "placeholder": "",
          "visible": true,
          "editable": true
        },
        "list": {
          "label": "ChildFee",
          "searchable": true,
          "sortable": true
        }
      },
      "created_at": {
        "edit": {
          "label": "Created_at",
          "description": "",
          "placeholder": "",
          "visible": false,
          "editable": true
        },
        "list": {
          "label": "Created_at",
          "searchable": true,
          "sortable": true
        }
      },
      "familyPassAdditionalFee": {
        "edit": {
          "label": "Zusatzpreis der Familienjahreskarte",
          "description": "",
          "placeholder": "",
          "visible": true,
          "editable": true
        },
        "list": {
          "label": "FamilyPassAdditionalFee",
          "searchable": true,
          "sortable": true
        }
      },
      "annualPassLink": {
        "edit": {
          "label": "Link zum Kaufen der Jahreskarte",
          "description": "",
          "placeholder": "",
          "visible": true,
          "editable": true
        },
        "list": {
          "label": "AnnualPassLink",
          "searchable": true,
          "sortable": true
        }
      },
      "otherFeesText": {
        "edit": {
          "label": "Text für sonstige Gebühren",
          "description": "",
          "placeholder": "",
          "visible": true,
          "editable": true
        },
        "list": {
          "label": "OtherFeesText",
          "searchable": false,
          "sortable": false
        }
      },
      "teenFee": {
        "edit": {
          "label": "Preis für Jugendliche",
          "description": "",
          "placeholder": "",
          "visible": true,
          "editable": true
        },
        "list": {
          "label": "TeenFee",
          "searchable": true,
          "sortable": true
        }
      },
      "adultFee": {
        "edit": {
          "label": "Preis für Erwachsene",
          "description": "",
          "placeholder": "",
          "visible": true,
          "editable": true
        },
        "list": {
          "label": "AdultFee",
          "searchable": true,
          "sortable": true
        }
      },
      "annualPassAdditionalFee": {
        "edit": {
          "label": "Zusatzpreis Jahreskarte",
          "description": "",
          "placeholder": "",
          "visible": true,
          "editable": true
        },
        "list": {
          "label": "AnnualPassAdditionalFee",
          "searchable": true,
          "sortable": true
        }
      },
      "metadata": {
        "edit": {
          "label": "Metadaten",
          "description": "",
          "placeholder": "",
          "visible": true,
          "editable": true
        },
        "list": {
          "label": "Metadata",
          "searchable": false,
          "sortable": false
        }
      },
      "familyPassFee": {
        "edit": {
          "label": "Preis der Familienjahreskarte",
          "description": "",
          "placeholder": "",
          "visible": true,
          "editable": true
        },
        "list": {
          "label": "FamilyPassFee",
          "searchable": true,
          "sortable": true
        }
      },
      "individualFeesText": {
        "edit": {
          "label": "Text über den Eintrittspreisen",
          "description": "",
          "placeholder": "",
          "visible": true,
          "editable": true
        },
        "list": {
          "label": "IndividualFeesText",
          "searchable": false,
          "sortable": false
        }
      },
      "annualPassFee": {
        "edit": {
          "label": "Preis der Jahreskarte",
          "description": "",
          "placeholder": "",
          "visible": true,
          "editable": true
        },
        "list": {
          "label": "AnnualPassFee",
          "searchable": true,
          "sortable": true
        }
      },
      "updated_at": {
        "edit": {
          "label": "Updated_at",
          "description": "",
          "placeholder": "",
          "visible": false,
          "editable": true
        },
        "list": {
          "label": "Updated_at",
          "searchable": true,
          "sortable": true
        }
      },
      "subscriptionInfoText": {
        "edit": {
          "label": "Details zur Fördervereinsmitgliedschaft",
          "description": "",
          "placeholder": "",
          "visible": true,
          "editable": true
        },
        "list": {
          "label": "SubscriptionInfoText",
          "searchable": false,
          "sortable": false
        }
      },
      "introText": {
        "edit": {
          "label": "Intro-Text",
          "description": "",
          "placeholder": "",
          "visible": true,
          "editable": true
        },
        "list": {
          "label": "IntroText",
          "searchable": false,
          "sortable": false
        }
      },
      "id": {
        "edit": {},
        "list": {
          "label": "Id",
          "searchable": true,
          "sortable": true
        }
      },
      "subscriptionIntroText": {
        "edit": {
          "label": "Einleitungstext der Fördervereinsmitgliedschaft",
          "description": "",
          "placeholder": "",
          "visible": true,
          "editable": true
        },
        "list": {
          "label": "SubscriptionIntroText",
          "searchable": false,
          "sortable": false
        }
      },
      "annualPassIntro": {
        "edit": {
          "label": "Text für die Beschreibung der Jahreskarte",
          "description": "",
          "placeholder": "",
          "visible": true,
          "editable": true
        },
        "list": {
          "label": "AnnualPassIntro",
          "searchable": true,
          "sortable": true
        }
      },
      "annualPassText": {
        "edit": {
          "label": "Text neben dem Preis der Jahreskarte",
          "description": "",
          "placeholder": "",
          "visible": true,
          "editable": true
        },
        "list": {
          "label": "AnnualPassText",
          "searchable": true,
          "sortable": true
        }
      }
    },
    "layouts": {
      "edit": [
        [
          {
            "name": "introText",
            "size": 12
          }
        ],
        [
          {
            "name": "individualFeesText",
            "size": 12
          }
        ],
        [
          {
            "name": "adultFee",
            "size": 6
          },
          {
            "name": "adultAdditionalFee",
            "size": 6
          }
        ],
        [
          {
            "name": "teenFee",
            "size": 6
          },
          {
            "name": "teenAdditionalFee",
            "size": 6
          }
        ],
        [
          {
            "name": "childFee",
            "size": 6
          },
          {
            "name": "childAdditionalFee",
            "size": 6
          }
        ],
        [
          {
            "name": "annualPassIntro",
            "size": 6
          }
        ],
        [
          {
            "name": "annualPassText",
            "size": 6
          }
        ],
        [
          {
            "name": "annualPassFee",
            "size": 6
          },
          {
            "name": "annualPassAdditionalFee",
            "size": 6
          }
        ],
        [
          {
            "name": "familyPassText",
            "size": 6
          }
        ],
        [
          {
            "name": "familyPassFee",
            "size": 6
          },
          {
            "name": "familyPassAdditionalFee",
            "size": 6
          }
        ],
        [
          {
            "name": "annualPassLink",
            "size": 6
          }
        ],
        [
          {
            "name": "subscriptionIntroText",
            "size": 12
          }
        ],
        [
          {
            "name": "subscriptionFee",
            "size": 6
          }
        ],
        [
          {
            "name": "subscriptionInfoText",
            "size": 12
          }
        ],
        [
          {
            "name": "otherFeesText",
            "size": 12
          }
        ],
        [
          {
            "name": "metadata",
            "size": 12
          }
        ]
      ],
      "editRelations": [],
      "list": [
        "id",
        "annualPassIntro",
        "adultFee",
        "teenFee"
      ]
    }
  },
  "type": "object",
  "environment": "",
  "tag": ""
}