{
  "key": "plugin_content_manager_configuration_components::team.committee-members",
  "value": {
    "uid": "team.committee-members",
    "settings": {
      "bulkable": true,
      "filterable": true,
      "searchable": true,
      "pageSize": 10,
      "mainField": "position",
      "defaultSortBy": "position",
      "defaultSortOrder": "ASC"
    },
    "metadatas": {
      "id": {
        "edit": {},
        "list": {
          "label": "Id",
          "searchable": false,
          "sortable": false
        }
      },
      "person": {
        "edit": {
          "label": "Person",
          "description": "",
          "placeholder": "",
          "visible": true,
          "editable": true,
          "mainField": "name"
        },
        "list": {
          "label": "Person",
          "searchable": true,
          "sortable": true
        }
      },
      "position": {
        "edit": {
          "label": "Position",
          "description": "",
          "placeholder": "",
          "visible": true,
          "editable": true
        },
        "list": {
          "label": "Position",
          "searchable": true,
          "sortable": true
        }
      }
    },
    "layouts": {
      "list": [
        "id",
        "person",
        "position"
      ],
      "edit": [
        [
          {
            "name": "person",
            "size": 6
          },
          {
            "name": "position",
            "size": 6
          }
        ]
      ],
      "editRelations": []
    },
    "isComponent": true
  },
  "type": "object",
  "environment": "",
  "tag": ""
}