{
  "key": "plugin_content_manager_configuration_content_types::application::gallery.gallery",
  "value": {
    "uid": "application::gallery.gallery",
    "settings": {
      "bulkable": true,
      "filterable": true,
      "searchable": true,
      "pageSize": 10,
      "mainField": "id",
      "defaultSortBy": "id",
      "defaultSortOrder": "ASC"
    },
    "metadatas": {
      "accessibilityDisclaimer": {
        "edit": {
          "label": "Referenz zu den Informationen der Barrierefreiheit",
          "description": "",
          "placeholder": "",
          "visible": true,
          "editable": true
        },
        "list": {
          "label": "AccessibilityDisclaimer",
          "searchable": false,
          "sortable": false
        }
      },
      "galleryImages": {
        "edit": {
          "label": "Galerie-Bilder",
          "description": "",
          "placeholder": "",
          "visible": true,
          "editable": true
        },
        "list": {
          "label": "GalleryImages",
          "searchable": false,
          "sortable": false
        }
      },
      "created_at": {
        "edit": {
          "label": "Created_at",
          "description": "",
          "placeholder": "",
          "visible": false,
          "editable": true
        },
        "list": {
          "label": "Created_at",
          "searchable": true,
          "sortable": true
        }
      },
      "equipmentDescription": {
        "edit": {
          "label": "Beschreibung der Ausstattung",
          "description": "",
          "placeholder": "",
          "visible": true,
          "editable": true
        },
        "list": {
          "label": "EquipmentDescription",
          "searchable": false,
          "sortable": false
        }
      },
      "metadata": {
        "edit": {
          "label": "Metadaten",
          "description": "",
          "placeholder": "",
          "visible": true,
          "editable": true
        },
        "list": {
          "label": "Metadata",
          "searchable": false,
          "sortable": false
        }
      },
      "routeDescription": {
        "edit": {
          "label": "Beschreibung der Anfahrt",
          "description": "",
          "placeholder": "",
          "visible": true,
          "editable": true
        },
        "list": {
          "label": "RouteDescription",
          "searchable": false,
          "sortable": false
        }
      },
      "googleMaps2ClickText": {
        "edit": {
          "label": "Platzhaltertext für Google Maps",
          "description": "",
          "placeholder": "",
          "visible": true,
          "editable": true
        },
        "list": {
          "label": "GoogleMaps2ClickText",
          "searchable": false,
          "sortable": false
        }
      },
      "updated_at": {
        "edit": {
          "label": "Updated_at",
          "description": "",
          "placeholder": "",
          "visible": false,
          "editable": true
        },
        "list": {
          "label": "Updated_at",
          "searchable": true,
          "sortable": true
        }
      },
      "id": {
        "edit": {},
        "list": {
          "label": "Id",
          "searchable": true,
          "sortable": true
        }
      },
      "accessibilityText": {
        "edit": {
          "label": "Informationen zur Barrierefreieheit",
          "description": "",
          "placeholder": "",
          "visible": true,
          "editable": true
        },
        "list": {
          "label": "AccessibilityText",
          "searchable": false,
          "sortable": false
        }
      }
    },
    "layouts": {
      "edit": [
        [
          {
            "name": "accessibilityDisclaimer",
            "size": 12
          }
        ],
        [
          {
            "name": "galleryImages",
            "size": 12
          }
        ],
        [
          {
            "name": "equipmentDescription",
            "size": 12
          }
        ],
        [
          {
            "name": "googleMaps2ClickText",
            "size": 12
          }
        ],
        [
          {
            "name": "routeDescription",
            "size": 12
          }
        ],
        [
          {
            "name": "accessibilityText",
            "size": 12
          }
        ],
        [
          {
            "name": "metadata",
            "size": 12
          }
        ]
      ],
      "editRelations": [],
      "list": [
        "id",
        "created_at",
        "updated_at"
      ]
    }
  },
  "type": "object",
  "environment": "",
  "tag": ""
}