{
  "key": "model_def_swimming-schedule.course-type",
  "value": {
    "uid": "swimming-schedule.course-type",
    "collectionName": "components_swimming_schedule_course_types",
    "info": {
      "name": "courseType",
      "icon": "shapes"
    },
    "options": {
      "timestamps": false
    },
    "attributes": {
      "type": {
        "type": "string",
        "required": true
      },
      "description": {
        "type": "richtext"
      }
    }
  },
  "type": "object",
  "environment": null,
  "tag": null
}