{
  "key": "model_def_application::vorstand.vorstand",
  "value": {
    "uid": "application::vorstand.vorstand",
    "collectionName": "vorstands",
    "kind": "collectionType",
    "info": {
      "name": "Vorstand",
      "description": ""
    },
    "options": {
      "increments": true,
      "timestamps": [
        "created_at",
        "updated_at"
      ],
      "draftAndPublish": false
    },
    "pluginOptions": {},
    "attributes": {
      "person": {
        "model": "person"
      },
      "position": {
        "type": "string",
        "required": false
      },
      "created_by": {
        "model": "user",
        "plugin": "admin",
        "configurable": false,
        "writable": false,
        "visible": false,
        "private": true
      },
      "updated_by": {
        "model": "user",
        "plugin": "admin",
        "configurable": false,
        "writable": false,
        "visible": false,
        "private": true
      }
    }
  },
  "type": "object",
  "environment": null,
  "tag": null
}