{
  "key": "model_def_application::neuigkeit.neuigkeit",
  "value": {
    "uid": "application::neuigkeit.neuigkeit",
    "collectionName": "neuigkeiten",
    "kind": "collectionType",
    "info": {
      "name": "Neuigkeit",
      "description": ""
    },
    "options": {
      "increments": true,
      "timestamps": [
        "created_at",
        "updated_at"
      ],
      "draftAndPublish": true
    },
    "pluginOptions": {},
    "attributes": {
      "title": {
        "type": "text",
        "required": true
      },
      "article": {
        "type": "richtext",
        "required": true
      },
      "image": {
        "model": "file",
        "via": "related",
        "allowedTypes": [
          "images"
        ],
        "plugin": "upload",
        "required": false,
        "pluginOptions": {}
      },
      "author": {
        "model": "person"
      },
      "published_at": {
        "type": "datetime",
        "configurable": false,
        "writable": true,
        "visible": false
      },
      "created_by": {
        "model": "user",
        "plugin": "admin",
        "configurable": false,
        "writable": false,
        "visible": false,
        "private": true
      },
      "updated_by": {
        "model": "user",
        "plugin": "admin",
        "configurable": false,
        "writable": false,
        "visible": false,
        "private": true
      }
    }
  },
  "type": "object",
  "environment": null,
  "tag": null
}