{
  "collectionName": "components_gallery_galleryimages",
  "info": {
    "name": "galleryimage",
    "icon": "border-all",
    "description": ""
  },
  "options": {},
  "attributes": {
    "thumbnail": {
      "model": "file",
      "via": "related",
      "allowedTypes": [
        "images",
        "files",
        "videos"
      ],
      "plugin": "upload",
      "required": false,
      "pluginOptions": {}
    },
    "fullImage": {
      "model": "file",
      "via": "related",
      "allowedTypes": [
        "images",
        "files",
        "videos"
      ],
      "plugin": "upload",
      "required": false,
      "pluginOptions": {}
    }
  }
}
