{
  "routes": [
    {
      "method": "GET",
      "path": "/faqPage",
      "handler": "faqPage.find",
      "config": {
        "policies": []
      }
    },
    {
      "method": "PUT",
      "path": "/faqPage",
      "handler": "faqPage.update",
      "config": {
        "policies": []
      }
    },
    {
      "method": "DELETE",
      "path": "/faqPage",
      "handler": "faqPage.delete",
      "config": {
        "policies": []
      }
    }
  ]
}
