<?xml version="1.0" standalone="no"?>
<!DOCTYPE svg PUBLIC "-//W3C//DTD SVG 20010904//EN"
 "http://www.w3.org/TR/2001/REC-SVG-20010904/DTD/svg10.dtd">
<svg version="1.0" xmlns="http://www.w3.org/2000/svg"
 width="1068.000000pt" height="1200.000000pt" viewBox="0 0 1068.000000 1200.000000"
 preserveAspectRatio="xMidYMid meet">

<g transform="translate(0.000000,1200.000000) scale(0.100000,-0.100000)"
fill="#000000" stroke="none">
<path d="M4304 11965 c-167 -31 -377 -119 -491 -207 -57 -44 -143 -142 -143
-164 0 -17 78 -68 128 -85 78 -26 191 4 482 129 238 102 265 109 337 92 102
-25 166 -90 178 -181 5 -32 12 -49 21 -49 7 0 55 21 105 47 l91 48 -7 45 c-10
68 -57 160 -109 211 -56 55 -150 103 -231 118 -77 14 -272 12 -361 -4z"/>
<path d="M5672 11865 c-102 -22 -199 -88 -275 -187 -59 -75 -75 -133 -56 -196
10 -30 24 -52 39 -60 22 -12 9 -12 -90 -7 -64 3 -134 10 -155 15 -72 17 -315
23 -411 11 -267 -33 -477 -137 -650 -325 -92 -98 -159 -188 -314 -421 -152
-228 -233 -341 -324 -450 -53 -63 -83 -88 -170 -140 -399 -240 -658 -496 -809
-800 -119 -240 -140 -544 -55 -805 29 -90 106 -241 167 -327 115 -163 337
-361 531 -473 318 -185 744 -303 1110 -309 121 -2 257 -21 375 -51 118 -31
348 -102 405 -125 62 -26 257 -79 378 -103 47 -9 284 -9 337 0 282 49 566 159
880 340 72 41 238 144 369 227 299 191 439 272 640 373 147 74 165 86 253 171
217 210 328 423 353 678 15 149 1 277 -47 419 -42 126 -63 167 -140 285 -82
125 -186 239 -307 339 -195 160 -349 340 -531 619 -308 472 -359 542 -483 659
-121 113 -241 185 -388 230 -54 16 -105 21 -239 25 -168 5 -242 -1 -376 -31
-37 -8 -72 -16 -80 -18 -8 -2 -19 14 -28 39 -17 49 -15 54 64 116 l50 39 68
-7 c38 -3 123 -17 188 -31 193 -39 274 -49 334 -40 56 9 113 56 140 117 l19
41 -25 19 c-42 33 -154 88 -220 109 -155 49 -390 64 -527 35z m533 -590 c229
-53 386 -183 600 -499 11 -16 27 -39 35 -51 8 -12 34 -53 58 -91 62 -100 88
-140 176 -270 84 -125 92 -136 144 -194 17 -21 32 -40 32 -43 0 -21 234 -254
340 -339 109 -86 152 -132 243 -259 188 -264 231 -568 118 -834 -21 -48 -32
-71 -43 -89 -7 -11 -28 -45 -47 -75 -19 -30 -73 -95 -119 -143 -80 -81 -94
-92 -236 -163 -169 -85 -254 -131 -273 -146 -6 -6 -27 -19 -45 -28 -60 -32
-82 -46 -128 -76 -64 -43 -80 -52 -125 -76 -22 -12 -49 -29 -60 -38 -11 -10
-63 -43 -115 -76 -52 -32 -117 -73 -145 -91 -130 -85 -388 -217 -540 -277
-107 -42 -278 -96 -326 -102 -19 -3 -74 -11 -124 -18 -55 -9 -106 -11 -135 -6
-25 5 -76 13 -115 20 -91 15 -354 91 -450 130 -49 20 -190 61 -300 88 -153 36
-249 49 -455 61 -185 11 -245 17 -272 26 -10 3 -31 7 -46 9 -66 9 -248 58
-317 86 -91 37 -156 64 -192 80 -23 10 -45 19 -48 19 -10 0 -214 129 -274 174
-70 51 -239 218 -279 276 -89 129 -140 233 -174 357 -18 63 -22 105 -22 223 0
136 2 151 32 240 33 100 109 256 146 301 11 14 32 41 45 60 33 47 300 309 315
309 7 0 23 12 37 26 13 14 71 55 129 91 58 37 116 73 130 82 14 8 42 25 62 36
37 20 178 168 224 235 13 19 42 60 65 90 22 30 74 107 116 170 74 113 123 185
191 285 93 137 227 281 320 344 204 138 382 167 792 127 249 -24 405 -24 485
-1 179 52 441 70 570 40z"/>
<path d="M5832 11061 c-69 -24 -147 -77 -175 -121 -13 -19 -36 -62 -52 -95
-25 -52 -29 -73 -29 -150 -1 -81 2 -96 29 -149 35 -69 139 -164 229 -210 50
-25 64 -28 125 -24 64 5 161 40 161 59 0 4 8 10 18 13 28 9 111 96 134 140 26
51 35 169 18 244 -54 232 -256 361 -458 293z m214 -263 c93 -63 140 -205 98
-294 -31 -65 -101 -115 -182 -129 -66 -11 -164 46 -213 123 -40 64 -39 119 4
203 27 53 41 69 87 97 42 25 65 32 106 32 42 0 61 -6 100 -32z"/>
<path d="M4490 11021 c-43 -9 -152 -63 -177 -88 -55 -55 -91 -120 -113 -206
-22 -87 -16 -165 17 -231 36 -71 136 -164 228 -210 76 -38 77 -39 141 -28 108
18 247 113 293 202 19 37 40 150 36 200 -6 79 -56 194 -107 249 -88 94 -204
135 -318 112z m169 -275 c47 -30 77 -70 102 -139 23 -63 23 -80 3 -140 -21
-61 -77 -112 -150 -133 -70 -20 -119 -9 -190 44 -89 67 -110 158 -61 266 55
120 192 167 296 102z"/>
<path d="M6959 9641 c-25 -25 -29 -37 -29 -84 0 -126 50 -341 92 -396 28 -37
23 -66 -14 -84 -35 -16 -103 -39 -128 -43 -8 -2 -53 -10 -100 -18 -47 -9 -135
-18 -197 -21 -198 -10 -376 -55 -553 -138 -30 -14 -66 -31 -80 -37 -14 -5 -41
-20 -60 -31 -19 -12 -93 -52 -165 -88 -71 -37 -139 -72 -150 -79 -51 -29 -256
-107 -335 -127 -145 -37 -243 -47 -465 -47 -207 -1 -365 11 -445 32 -35 9
-126 26 -190 35 -194 27 -359 166 -458 385 -32 70 -82 219 -82 244 0 39 -32
120 -54 138 -31 25 -89 23 -122 -5 -24 -21 -27 -30 -31 -122 -3 -55 -9 -104
-14 -109 -5 -6 -9 -19 -9 -30 0 -27 -56 -124 -96 -169 -30 -33 -169 -143 -226
-180 -23 -14 -28 -25 -28 -55 0 -45 20 -104 44 -131 43 -48 132 -52 198 -8 77
51 84 52 120 25 35 -26 216 -138 224 -138 2 0 23 -12 47 -27 58 -37 254 -134
362 -178 113 -47 377 -138 435 -150 19 -4 61 -15 92 -25 32 -10 110 -26 175
-35 65 -9 127 -21 138 -25 45 -19 321 -33 519 -26 193 7 251 13 361 35 28 6
72 14 98 17 26 4 50 11 53 15 3 5 16 9 29 9 14 0 42 6 62 14 21 8 65 22 98 32
33 9 65 20 70 24 6 3 42 19 80 35 39 16 90 40 115 54 25 15 63 35 85 46 22 11
58 32 80 48 22 15 58 39 80 54 75 48 180 137 275 233 95 95 127 131 197 225
21 28 41 52 46 53 4 2 7 8 7 13 0 8 61 103 75 117 5 6 48 -19 75 -43 47 -42
162 -97 189 -90 42 10 72 34 87 71 22 52 5 96 -73 191 -38 46 -106 129 -152
185 -46 57 -89 108 -95 113 -35 32 -69 103 -77 162 -16 117 -50 163 -117 163
-24 0 -42 -9 -63 -29z m-69 -809 c0 -9 -158 -186 -203 -226 -80 -72 -101 -90
-174 -144 -109 -80 -146 -103 -259 -160 -186 -93 -375 -154 -599 -193 -111
-19 -166 -23 -380 -23 -302 0 -436 17 -725 91 -128 33 -176 48 -305 95 -115
42 -141 55 -90 45 17 -4 102 -19 190 -34 145 -24 185 -27 425 -27 219 -1 281
2 355 17 239 49 382 101 645 236 514 264 537 271 905 302 82 6 161 15 175 20
34 10 40 10 40 1z m-3361 -59 c31 -65 96 -160 139 -205 39 -41 37 -49 -6 -20
-15 11 -75 50 -134 88 -59 38 -108 73 -108 77 0 5 16 27 35 50 19 22 35 44 35
49 0 22 18 3 39 -39z"/>
<path d="M8529 10725 c-114 -42 -212 -123 -250 -208 -21 -44 -24 -68 -24 -162
l0 -110 47 -95 c61 -124 163 -407 182 -501 2 -13 14 -64 25 -112 12 -48 28
-147 37 -220 14 -111 15 -149 5 -237 -33 -295 -133 -516 -358 -795 -108 -133
-116 -140 -277 -229 -155 -86 -232 -141 -297 -214 -65 -72 -99 -146 -106 -229
-5 -66 9 -186 26 -221 5 -10 24 -51 44 -93 20 -43 56 -109 82 -149 53 -83 39
-82 190 -10 107 50 192 108 375 254 183 146 279 218 371 278 81 52 175 127
263 207 63 59 205 226 336 396 68 88 146 187 174 219 132 153 300 259 471 296
72 16 129 20 284 20 265 0 349 21 448 113 123 113 126 275 8 393 -25 25 -72
58 -103 72 -52 25 -68 27 -177 27 -105 0 -130 -4 -200 -27 -130 -45 -266 -68
-440 -75 -174 -6 -304 2 -330 21 -15 11 -14 15 15 43 24 23 43 32 83 36 80 8
215 57 281 102 121 80 171 180 164 324 -4 76 -8 94 -42 159 -68 128 -182 211
-322 235 -82 14 -174 -7 -251 -58 -55 -37 -58 -40 -135 -157 -60 -93 -165
-195 -182 -178 -7 7 -11 56 -10 133 0 113 3 129 34 217 31 85 34 106 35 201 0
100 -2 109 -34 173 -61 122 -160 177 -318 175 -49 0 -104 -6 -124 -14z m227
-200 c68 -44 79 -127 34 -261 -58 -172 -73 -319 -45 -429 30 -117 61 -157 145
-185 93 -32 175 2 287 116 53 56 163 205 163 223 0 18 94 56 134 55 146 -3
266 -199 191 -310 -23 -33 -83 -84 -100 -84 -4 0 -21 -6 -38 -14 -38 -16 -172
-46 -206 -46 -15 0 -49 -23 -92 -61 -133 -118 -154 -236 -58 -325 67 -62 181
-85 415 -86 226 0 404 26 588 86 106 35 175 34 240 -2 58 -32 75 -66 54 -108
-35 -73 -122 -96 -353 -93 -93 0 -201 -4 -240 -10 -171 -27 -315 -85 -442
-178 -72 -52 -210 -188 -258 -253 -49 -67 -70 -94 -95 -124 -14 -17 -59 -76
-100 -131 -75 -99 -310 -344 -384 -401 -21 -16 -89 -63 -150 -104 -99 -66
-169 -117 -216 -157 -180 -151 -299 -240 -402 -300 l-38 -22 -25 42 c-31 54
-65 159 -65 202 0 70 13 98 69 154 62 61 111 95 303 204 114 65 134 80 205
162 108 124 139 165 214 280 166 255 236 466 255 770 9 130 -20 333 -85 605
-25 104 -134 404 -167 460 -50 84 -65 173 -40 233 19 43 87 96 144 112 44 13
124 3 158 -20z"/>
<path d="M1792 10341 c-96 -33 -145 -103 -161 -230 -11 -89 -1 -202 38 -426
38 -218 43 -291 24 -310 -18 -18 -18 -18 -51 -1 -36 19 -64 57 -151 202 -64
105 -80 125 -125 152 -150 90 -337 62 -462 -69 -93 -99 -134 -198 -134 -323 1
-172 112 -305 297 -355 44 -11 106 -21 138 -21 48 0 67 -5 107 -31 27 -18 47
-37 45 -43 -11 -34 -282 -56 -705 -57 -395 0 -487 -7 -529 -37 -44 -31 -94
-132 -100 -202 -12 -132 75 -215 266 -254 104 -22 167 -26 466 -31 254 -4 390
-13 459 -31 19 -4 36 -26 65 -79 99 -183 230 -354 390 -507 185 -177 398 -327
766 -538 280 -160 508 -303 643 -403 l54 -39 65 18 c73 20 72 18 103 144 14
55 18 102 16 175 -8 268 -130 425 -601 775 -173 129 -292 226 -355 289 -92 93
-97 100 -137 201 -70 179 -93 306 -94 509 0 221 37 431 142 793 95 331 90 309
79 387 -25 177 -139 283 -367 342 -93 23 -123 23 -191 0z m169 -190 c137 -47
184 -88 200 -174 7 -40 -8 -104 -65 -282 -14 -44 -30 -98 -35 -120 -6 -22 -19
-76 -31 -120 -135 -528 -120 -929 49 -1291 62 -132 223 -280 613 -564 300
-219 421 -369 434 -540 8 -109 2 -112 -97 -47 -46 30 -133 84 -194 121 -60 37
-117 71 -125 76 -8 5 -44 26 -80 46 -145 83 -419 248 -475 287 -345 236 -561
465 -720 762 -47 89 -65 108 -128 136 -79 33 -215 47 -527 54 -484 9 -616 38
-556 120 14 19 30 20 473 26 361 4 480 9 561 23 171 28 270 75 298 143 42 98
-14 198 -166 297 -54 35 -72 42 -110 41 -25 -1 -81 4 -125 12 -93 17 -151 50
-177 103 -64 127 55 330 194 330 78 0 99 -18 179 -150 129 -213 233 -287 361
-261 71 15 146 64 164 107 31 75 26 188 -22 444 -30 160 -33 185 -33 293 -1
94 1 109 19 127 25 25 52 25 121 1z"/>
<path d="M7069 7681 c-57 -39 -122 -83 -144 -99 -515 -372 -644 -455 -825
-528 -162 -66 -267 -87 -435 -88 -197 -1 -412 48 -520 118 -48 32 -147 73
-230 96 -484 135 -1008 184 -1261 120 -124 -32 -199 -81 -236 -153 -51 -101
-80 -446 -59 -699 24 -281 95 -572 207 -840 13 -32 24 -59 24 -61 0 -3 -51
-29 -113 -60 -142 -70 -236 -155 -288 -263 -30 -62 -34 -79 -37 -176 -4 -90
-1 -117 18 -175 63 -193 221 -380 445 -528 391 -257 828 -285 1112 -71 l72 54
78 -29 c287 -108 630 -163 838 -134 88 12 258 45 315 61 30 8 60 16 65 18 206
54 457 172 640 303 64 47 80 51 89 27 18 -48 113 -171 200 -262 148 -152 259
-215 414 -233 111 -13 188 -4 283 32 435 167 748 872 614 1384 -77 294 -325
479 -644 480 l-93 0 6 70 c4 39 12 95 19 125 8 37 12 166 12 390 -1 356 -10
462 -55 615 -12 39 -23 79 -25 90 -3 11 -19 63 -36 115 -64 195 -160 335 -245
359 -74 21 -95 15 -205 -58z m162 -174 c21 -16 59 -91 59 -115 0 -11 9 -31 20
-45 11 -14 20 -34 20 -45 0 -11 7 -33 15 -48 8 -16 15 -46 15 -66 0 -21 5 -38
10 -38 6 0 10 -13 10 -28 0 -15 5 -33 11 -39 11 -11 17 -58 40 -298 6 -61 8
-190 5 -290 -7 -204 -8 -223 -25 -320 -7 -38 -15 -88 -17 -110 -9 -93 -16
-127 -39 -201 -14 -42 -25 -90 -25 -105 0 -26 2 -28 24 -20 13 5 50 10 82 12
32 1 64 6 71 11 7 6 16 8 20 5 4 -3 48 -2 97 2 96 7 243 -15 274 -42 10 -8 30
-17 46 -21 32 -8 104 -75 125 -118 8 -16 18 -28 23 -28 4 0 8 -7 8 -15 0 -8 4
-23 9 -33 36 -73 41 -96 46 -182 8 -147 -12 -333 -45 -415 -4 -11 -13 -40 -20
-65 -7 -25 -20 -59 -31 -76 -10 -17 -19 -38 -19 -46 0 -8 -11 -28 -25 -44 -14
-16 -25 -36 -25 -44 0 -8 -9 -26 -20 -40 -11 -14 -20 -28 -20 -32 0 -9 -23
-38 -61 -79 -15 -15 -33 -36 -40 -46 -8 -10 -34 -34 -59 -53 -25 -19 -47 -37
-50 -40 -7 -7 -64 -33 -126 -57 -42 -17 -62 -19 -120 -12 -77 9 -141 26 -164
45 -8 6 -29 19 -46 27 -53 27 -254 246 -254 277 0 6 -4 10 -10 10 -5 0 -10 8
-10 18 0 10 -5 23 -11 29 -14 14 -33 46 -58 101 -11 23 -25 42 -31 42 -6 0
-10 6 -8 13 1 6 -6 27 -15 45 l-18 33 -52 -43 c-29 -24 -53 -46 -55 -50 -2 -5
-8 -8 -13 -8 -5 0 -17 -8 -27 -17 -56 -54 -105 -93 -117 -93 -7 0 -15 -3 -17
-7 -5 -12 -97 -73 -109 -73 -6 0 -25 -11 -43 -25 -18 -14 -40 -25 -49 -25 -8
0 -17 -5 -19 -11 -4 -11 -58 -34 -117 -49 -19 -5 -47 -18 -62 -29 -16 -12 -37
-21 -48 -21 -11 0 -23 -4 -26 -10 -3 -5 -24 -10 -45 -10 -21 0 -42 -5 -45 -11
-4 -6 -13 -8 -20 -5 -7 2 -17 0 -22 -5 -13 -13 -175 -49 -228 -51 -22 0 -48
-5 -57 -9 -24 -13 -188 -13 -235 0 -22 6 -67 13 -99 16 -60 4 -124 17 -210 41
-28 8 -58 14 -66 14 -9 0 -21 6 -27 14 -6 8 -24 16 -39 19 -29 5 -86 24 -114
38 -10 5 -24 9 -31 9 -16 0 -80 30 -87 41 -3 4 -15 9 -27 10 -16 3 -42 -16
-103 -78 -45 -46 -90 -83 -100 -83 -10 0 -25 -7 -34 -15 -8 -8 -22 -15 -30
-15 -9 0 -16 -4 -16 -8 0 -14 -123 -37 -195 -36 -91 0 -255 27 -286 47 -13 8
-49 23 -79 32 -30 10 -57 21 -60 24 -10 12 -50 31 -65 31 -8 0 -15 4 -15 9 0
5 -18 17 -40 27 -22 10 -40 24 -40 31 0 7 -6 13 -14 13 -7 0 -20 7 -27 17 -8
9 -27 24 -43 34 -46 28 -132 116 -150 153 -9 19 -23 36 -31 40 -8 3 -15 13
-15 21 0 9 -13 40 -30 69 -22 41 -30 68 -31 117 -3 80 6 138 24 153 8 6 24 25
36 43 24 36 141 113 171 113 11 0 20 5 20 10 0 6 8 10 18 10 10 0 22 3 26 7
11 11 79 33 106 33 14 0 36 7 50 15 14 8 35 14 48 15 12 0 22 3 22 8 0 13 -32
97 -38 102 -10 7 -38 67 -58 123 -9 26 -21 50 -25 53 -5 3 -9 16 -9 30 0 13
-4 24 -9 24 -9 0 -41 77 -41 101 0 8 -9 32 -20 53 -10 21 -24 64 -30 95 -6 31
-14 63 -17 71 -10 24 -14 43 -18 81 -2 20 -11 54 -19 75 -9 22 -17 73 -19 115
-2 42 -7 81 -11 87 -11 18 -8 415 4 446 5 15 10 57 10 94 0 58 3 71 25 94 14
15 38 31 53 34 15 4 32 11 38 15 35 28 482 35 508 9 6 -6 28 -10 50 -10 23 0
59 -5 81 -10 22 -6 74 -13 115 -16 41 -4 92 -13 114 -20 21 -8 56 -14 77 -14
21 0 41 -4 44 -10 3 -5 17 -10 30 -10 13 0 36 -5 52 -12 15 -6 34 -10 41 -9 7
1 22 -5 34 -14 13 -8 30 -15 39 -15 38 0 119 -34 124 -51 4 -11 13 -19 21 -19
8 0 26 -7 39 -16 14 -9 25 -13 25 -10 0 4 10 0 22 -8 12 -9 34 -16 48 -16 14
0 30 -4 36 -9 12 -11 113 -45 139 -46 46 -3 121 -17 131 -26 17 -14 382 -13
398 0 8 7 44 14 80 18 37 3 69 10 72 14 3 5 14 9 26 9 11 0 32 8 46 19 15 10
44 21 65 24 20 3 49 15 64 26 14 12 36 21 50 21 13 0 26 7 29 15 4 8 14 15 24
15 10 0 23 7 30 15 7 8 18 15 25 15 7 0 24 9 39 21 14 11 30 17 36 14 5 -3 10
-1 10 5 0 6 15 17 33 25 17 7 43 25 55 38 13 14 35 28 48 31 13 4 24 11 24 16
0 6 5 10 10 10 14 0 93 52 103 67 4 7 14 13 21 13 7 0 26 16 43 35 17 19 35
35 41 35 5 0 17 9 27 20 10 11 24 20 31 20 7 0 27 14 44 30 17 17 37 30 45 30
8 0 18 6 22 13 4 6 15 17 24 22 50 31 107 72 128 92 26 26 48 28 72 10z"/>
<path d="M8472 5059 c-70 -15 -93 -62 -158 -317 -82 -323 -207 -523 -424 -675
-66 -46 -89 -75 -109 -137 l-11 -35 -242 3 c-134 2 -351 -1 -483 -7 -204 -8
-255 -13 -340 -35 -349 -88 -569 -259 -639 -495 -21 -71 -21 -246 -1 -326 45
-173 150 -331 362 -542 157 -156 163 -164 211 -265 42 -86 75 -186 98 -292 15
-68 36 -251 54 -456 25 -307 38 -426 50 -475 5 -22 12 -58 15 -80 34 -220 163
-423 318 -500 77 -39 117 -43 209 -21 198 48 295 133 305 270 11 130 -29 234
-190 503 -169 281 -209 383 -176 441 22 38 66 32 154 -20 55 -31 125 -96 320
-292 296 -298 363 -344 491 -346 126 -1 230 81 314 247 30 60 31 64 20 124
-19 102 -64 185 -144 264 -79 78 -155 122 -352 203 -191 78 -258 131 -292 231
-7 19 -12 36 -12 38 0 13 117 53 155 53 58 0 159 -28 272 -75 301 -126 360
-148 436 -162 101 -18 209 -11 278 18 94 41 197 192 205 302 9 132 -108 239
-316 286 -172 39 -261 45 -715 46 l-440 0 -88 34 c-199 75 -416 206 -549 330
-77 72 -126 146 -115 174 3 9 32 24 64 34 86 27 398 24 583 -6 408 -65 904
-47 1233 45 503 140 740 422 646 772 -49 186 -207 394 -464 614 -124 105 -219
217 -338 394 -79 118 -124 149 -195 133z m131 -376 c70 -94 178 -208 377 -395
113 -106 196 -199 226 -253 75 -138 95 -204 88 -293 -9 -116 -114 -234 -285
-319 -57 -28 -131 -59 -164 -68 -33 -9 -69 -21 -80 -25 -33 -14 -152 -36 -315
-59 -167 -24 -528 -20 -745 8 -81 11 -97 13 -194 29 -80 14 -406 15 -486 2
-137 -22 -238 -89 -269 -178 -27 -75 6 -187 79 -277 75 -91 198 -199 291 -255
21 -13 68 -42 104 -65 83 -52 239 -124 357 -164 104 -36 69 -34 660 -31 194 1
356 -1 361 -4 5 -3 56 -12 113 -20 97 -14 134 -25 217 -63 48 -23 43 -67 -18
-136 -35 -40 -72 -57 -122 -57 -46 0 -212 47 -282 79 -105 48 -217 96 -276
118 -238 87 -425 67 -567 -61 l-51 -46 4 -62 c8 -118 59 -233 137 -305 39 -36
168 -123 183 -123 3 0 30 -11 60 -25 30 -14 59 -25 64 -25 6 0 18 -4 28 -9 9
-5 57 -29 106 -53 94 -45 170 -109 195 -163 7 -16 17 -38 22 -47 15 -29 10
-47 -23 -96 -46 -67 -59 -79 -95 -87 -65 -13 -156 60 -406 325 -106 113 -146
149 -269 250 -64 54 -182 101 -264 107 -69 5 -77 4 -116 -22 -62 -40 -95 -83
-113 -142 -29 -94 -14 -203 44 -323 11 -24 21 -47 21 -51 0 -4 30 -56 66 -116
129 -210 157 -259 192 -333 46 -99 52 -157 21 -193 -26 -29 -120 -67 -168 -67
-46 0 -77 16 -124 62 -109 111 -162 307 -193 713 -38 519 -82 751 -177 945
-53 108 -106 178 -210 274 -186 171 -315 353 -356 501 -14 50 -14 212 -1 220
6 3 10 14 10 24 0 20 46 92 87 136 92 99 314 197 508 223 91 12 219 16 610 16
315 1 411 -4 490 -23 92 -22 187 -32 254 -26 123 10 161 34 161 99 0 83 -43
106 -201 106 -118 0 -189 9 -189 24 1 6 37 38 81 71 112 83 195 176 262 293
97 167 138 267 167 402 15 70 32 120 41 120 4 0 36 -39 72 -87z"/>
<path d="M2936 4899 c-14 -17 -26 -43 -26 -57 0 -15 -11 -53 -24 -84 -45 -109
-130 -220 -323 -419 -253 -261 -349 -381 -427 -536 -109 -216 -116 -443 -20
-638 31 -61 57 -94 129 -163 303 -294 578 -412 953 -412 216 0 513 39 772 100
292 70 527 80 506 22 -35 -91 -236 -312 -419 -459 -73 -58 -102 -74 -160 -91
-136 -39 -260 -52 -570 -62 -531 -16 -712 -59 -870 -210 -75 -71 -86 -98 -87
-200 0 -66 32 -140 81 -187 125 -119 364 -118 904 1 196 43 318 67 323 62 13
-14 -100 -100 -204 -155 -327 -176 -433 -258 -495 -387 -51 -108 -49 -242 7
-360 25 -53 123 -144 184 -173 164 -76 320 7 517 276 171 234 208 281 272 346
116 119 232 156 263 83 35 -82 -2 -184 -144 -401 -105 -160 -152 -252 -168
-329 -16 -77 -6 -165 26 -228 50 -98 217 -228 294 -228 106 0 240 60 320 142
160 163 214 431 209 1035 -2 279 4 380 32 537 28 152 58 212 173 344 304 352
434 617 420 856 -15 276 -234 462 -642 546 -262 55 -702 54 -1086 0 -76 -11
-142 -23 -147 -26 -5 -3 -9 -3 -9 0 0 8 186 92 440 199 101 42 263 132 300
167 56 52 32 146 -43 168 -17 6 -78 13 -134 16 -192 10 -389 86 -562 217 -94
70 -157 142 -248 281 -84 127 -133 236 -140 307 -10 98 -38 131 -111 131 -33
0 -45 -6 -66 -31z m111 -442 c23 -39 63 -101 90 -136 26 -35 53 -71 58 -80 45
-72 225 -223 337 -283 23 -13 45 -26 46 -30 2 -5 9 -8 16 -8 7 0 34 -11 62
-24 58 -28 141 -58 168 -61 26 -2 32 -23 9 -31 -19 -6 -45 -17 -103 -42 -19
-9 -48 -21 -65 -28 -29 -12 -120 -52 -180 -79 -127 -58 -184 -87 -318 -164
-117 -67 -169 -158 -131 -229 22 -41 46 -58 99 -70 47 -10 78 -6 305 43 91 19
188 38 215 41 28 3 120 13 205 23 405 46 869 11 1070 -82 55 -25 156 -91 182
-118 59 -61 93 -175 77 -261 -17 -98 -22 -119 -30 -124 -5 -3 -9 -13 -9 -22 0
-9 -6 -28 -14 -42 -7 -14 -28 -52 -46 -85 -18 -33 -43 -74 -56 -92 -13 -17
-24 -35 -24 -40 0 -4 -10 -19 -22 -33 -13 -14 -40 -48 -61 -75 -21 -28 -77
-94 -125 -148 -111 -126 -171 -238 -187 -349 -2 -15 -8 -44 -14 -65 -22 -83
-41 -394 -41 -684 0 -163 -5 -343 -11 -400 -6 -57 -11 -111 -12 -119 0 -8 -3
-19 -7 -25 -4 -5 -11 -27 -14 -49 -25 -137 -129 -255 -239 -271 -38 -6 -51 -3
-77 15 -85 60 -115 111 -106 176 5 39 11 57 37 104 5 8 15 30 24 48 8 19 28
51 45 72 16 21 30 40 30 43 0 3 19 34 43 69 62 93 64 98 93 158 47 98 57 141
57 235 0 77 -4 98 -27 145 -41 86 -74 118 -140 135 -71 19 -101 19 -168 1
-109 -29 -147 -52 -251 -151 -47 -45 -148 -166 -187 -224 -16 -23 -82 -114
-103 -141 -7 -9 -38 -50 -70 -93 -100 -130 -178 -172 -245 -130 -66 42 -96 98
-94 176 2 115 79 200 272 304 41 22 124 66 184 98 92 49 123 73 197 148 150
153 177 261 81 328 -49 34 -74 38 -190 27 -90 -9 -156 -21 -427 -78 -275 -58
-347 -69 -480 -69 -156 -1 -215 22 -215 84 0 69 155 156 333 185 54 9 467 34
537 33 14 -1 95 3 180 8 172 11 284 30 355 59 11 5 37 14 58 20 101 31 503
407 585 548 97 164 76 303 -56 363 -66 30 -242 37 -382 15 -149 -24 -299 -55
-340 -70 -30 -12 -60 -17 -177 -31 -12 -2 -34 -6 -50 -9 -78 -17 -285 -31
-433 -29 -317 3 -521 95 -798 357 -100 96 -139 199 -129 346 9 120 71 266 165
387 21 27 45 61 55 76 10 15 111 123 225 238 113 116 226 239 251 275 24 35
49 64 55 64 6 0 30 -33 53 -73z"/>
</g>
</svg>
